…
<<<<<<< HEAD
    ## # A tibble: 15,351 x 7
    ##    date      cause      source      location substance volume volume_units
    ##    <fct>     <fct>      <fct>       <fct>    <fct>      <dbl> <fct>       
    ##  1 July 22 … Operator … Multiphase… Midnapo… ""          NA   ""          
    ##  2 March 02… Operator … Unknown     Midnapo… ""          NA   ""          
    ##  3 March 07… Operator … Multiphase… Midnapo… ""          NA   ""          
    ##  4 12/8/2003 Equipment… Oil Well    RED DEER Propane      0.1 103m3       
    ##  5 December… Operator … Natural Ga… Wainwri… ""          NA   ""          
    ##  6 December… Operator … Water Pipe… Wainwri… ""          NA   ""          
    ##  7 1/4/2008  Operator … Unknown     Red Deer Condensa…    0.1 m3          
    ##  8 March 02… Operator … Other Pipe… RED DEER ""          NA   ""          
    ##  9 January … Operator … Sour Gas P… Red Deer ""          NA   ""          
    ## 10 6/12/2007 Equipment… Oil Well    Red Deer Air          0.1 103m3       
    ## # ... with 15,341 more rows
…
